1.423879278889684201e+02, 6.068846237009609013e+02
1.073668925767260589e+03, 6.058980972201576378e+02
1.443609808505749470e+02, 7.120074462478203259e+01
1.532397191778044316e+02, 4.056332216170926017e+02
1.571858251010174854e+02, 3.533473181345189573e+02
1.788894076786896221e+02, 3.128997324215846447e+02
2.074986756219846029e+02, 2.704790937470438621e+02
2.499193142965253855e+02, 2.270719285916997023e+02
3.022052177790990299e+02, 1.945165547251915541e+02
3.623833331080988955e+02, 1.639342338202900464e+02
4.205883954754921206e+02, 1.432171777234211731e+02
4.916183020933279977e+02, 1.244731745881589404e+02
5.636347351919671382e+02, 1.057291714528967077e+02
6.366376947714094285e+02, 9.191780072165090587e+01
7.017484425044257250e+02, 8.599864183683121155e+01
7.727783491222616021e+02, 8.501211535602794811e+01
8.467678351825071559e+02, 8.402558887522468467e+01
9.207573212427529370e+02, 8.205253591361815779e+01
9.937602808221953410e+02, 8.599864183683121155e+01
1.065776713920834482e+03, 8.205253591361815779e+01
