[
    {
        "question": "Welche Ausgabe ist richtig?",
        "code": " var1 = 1 \n var2 = 2 \n var3 = \"3\" \n print(var1 + var2 + var3)",
        "type": "multiple_choice",
        "answers": [
            {
                "answer": "6",
                "correct": false,
                "feedback": "Falsch. "
            },
            {
                "answer": "33",
                "correct": false,
                "feedback": "Falsch. "
            },
            {
                "answer": "123",
                "correct": false,
                "feedback": "Falsch. "
            },
            {
                "answer": "Fehlerhafte Ausgabe ",
                "correct": true,
                "feedback": "Richtig. Es ist nicht möglich \"int\" und \"string\" zu mixen."
            }
        ]
    }
]


